{
  "compilerOptions": {
    "baseUrl": "./web",
    "paths": {
      "~/*": [
        "./*"
      ],
      "@/*": [
        "./*"
      ],
      "~~/*": [
        "./*"
      ],
      "@@/*": [
        "./*"
      ]
    }
  },
  "exclude": [
    "web/node_modules",
    ".nuxt",
    "dist"
  ]
}
